<svg width="190" height="56" viewBox="0 0 190 56" fill="none" xmlns="http://www.w3.org/2000/svg">
<rect y="-0.000244141" width="190" height="56" rx="4" fill="url(#paint0_linear)"/>
<path d="M63.288 40.1358C63.108 40.6578 63.342 40.9998 63.9 40.9998H64.728C65.16 40.9998 65.448 40.8018 65.574 40.3698L66.456 37.7238H70.938L71.838 40.3878C71.964 40.8018 72.252 40.9998 72.684 40.9998H73.512C74.07 40.9998 74.304 40.6578 74.124 40.1358L70.128 28.8318C70.002 28.4178 69.714 28.2198 69.282 28.2198H68.13C67.698 28.2198 67.428 28.4178 67.284 28.8318L63.288 40.1358ZM67.032 35.8338L68.184 32.4138C68.4 31.6938 68.688 30.4338 68.688 30.4338H68.724C68.724 30.4338 69.012 31.6938 69.228 32.4138L70.362 35.8338H67.032ZM76.2622 43.8438C76.2622 44.3478 76.5322 44.5998 77.0182 44.5998H77.7922C78.2962 44.5998 78.5482 44.3478 78.5482 43.8438V40.6038C78.5482 40.1358 78.4942 39.8118 78.4942 39.8118H78.5302C78.5302 39.8118 79.2682 41.2158 81.1762 41.2158C83.5882 41.2158 85.3882 39.3258 85.3882 36.4098C85.3882 33.5658 83.7862 31.6038 81.3022 31.6038C79.1602 31.6038 78.3502 33.2238 78.3502 33.2238H78.3142C78.3142 33.2238 78.3322 33.0618 78.3322 32.8638V32.4498C78.3322 32.0898 78.0802 31.8198 77.5942 31.8198H77.0182C76.5322 31.8198 76.2622 32.0898 76.2622 32.5758V43.8438ZM78.4762 36.4638C78.4762 34.4298 79.6102 33.5658 80.7982 33.5658C82.1302 33.5658 83.0662 34.6998 83.0662 36.4458C83.0662 38.2638 82.0222 39.2898 80.7622 39.2898C79.2682 39.2898 78.4762 37.8858 78.4762 36.4638ZM87.8279 43.8438C87.8279 44.3478 88.0979 44.5998 88.5839 44.5998H89.3579C89.8619 44.5998 90.1139 44.3478 90.1139 43.8438V40.6038C90.1139 40.1358 90.0599 39.8118 90.0599 39.8118H90.0959C90.0959 39.8118 90.8339 41.2158 92.7419 41.2158C95.1539 41.2158 96.9539 39.3258 96.9539 36.4098C96.9539 33.5658 95.3519 31.6038 92.8679 31.6038C90.7259 31.6038 89.9159 33.2238 89.9159 33.2238H89.8799C89.8799 33.2238 89.8979 33.0618 89.8979 32.8638V32.4498C89.8979 32.0898 89.6459 31.8198 89.1599 31.8198H88.5839C88.0979 31.8198 87.8279 32.0898 87.8279 32.5758V43.8438ZM90.0419 36.4638C90.0419 34.4298 91.1759 33.5658 92.3639 33.5658C93.6959 33.5658 94.6319 34.6998 94.6319 36.4458C94.6319 38.2638 93.5879 39.2898 92.3279 39.2898C90.8339 39.2898 90.0419 37.8858 90.0419 36.4638ZM104.506 39.9198C105.136 40.4058 106.612 41.2158 108.43 41.2158C111.112 41.2158 112.66 39.5058 112.66 37.4358C112.66 33.3678 106.702 33.9798 106.702 31.5858C106.702 30.7218 107.458 30.1458 108.646 30.1458C109.636 30.1458 110.338 30.5418 110.86 30.8478C111.238 31.0458 111.616 31.1178 111.886 30.5958L112.21 30.0018C112.426 29.6058 112.372 29.2638 111.976 28.9758C111.436 28.5798 110.194 28.0038 108.682 28.0038C106.252 28.0038 104.38 29.4618 104.38 31.7118C104.38 35.6898 110.338 35.1858 110.338 37.6158C110.338 38.4798 109.618 39.0738 108.43 39.0738C107.17 39.0738 106.252 38.4258 105.838 38.1378C105.388 37.8858 105.082 37.9038 104.794 38.2998L104.398 38.8758C104.038 39.3618 104.218 39.6678 104.506 39.9198ZM115.611 37.7238C115.611 40.2078 117.555 41.0898 119.193 41.0898C119.823 41.0898 120.129 40.8738 120.129 40.3338V39.7758C120.129 39.2718 119.931 39.0918 119.373 39.0378C118.743 38.9658 117.897 38.6958 117.897 37.3278V33.7638H119.247C119.715 33.7638 119.985 33.5118 119.985 33.0078V32.7018C119.985 32.2158 119.715 31.9458 119.229 31.9458H117.897V30.0738C117.897 29.5878 117.627 29.3178 117.141 29.3178H116.421C115.935 29.3178 115.665 29.5878 115.665 30.0738V31.9458H115.143C114.639 31.9458 114.387 32.2158 114.387 32.7018V33.0078C114.387 33.5118 114.639 33.7638 115.125 33.7638H115.611V37.7238ZM121.72 36.4098C121.72 39.2358 123.97 41.2158 126.76 41.2158C129.55 41.2158 131.818 39.2358 131.818 36.4098C131.818 33.6018 129.55 31.6038 126.76 31.6038C123.97 31.6038 121.72 33.6018 121.72 36.4098ZM124.042 36.4098C124.042 34.7178 125.266 33.5478 126.76 33.5478C128.254 33.5478 129.496 34.7178 129.496 36.4098C129.496 38.1198 128.254 39.2718 126.76 39.2718C125.266 39.2718 124.042 38.1198 124.042 36.4098ZM134.213 40.2438C134.213 40.7478 134.465 40.9998 134.951 40.9998H135.743C136.229 40.9998 136.481 40.7478 136.481 40.2438V37.2918C136.481 35.6178 137.291 33.9618 138.965 33.9618C139.451 33.9618 139.739 33.6918 139.739 33.2058V32.5038C139.739 31.9998 139.559 31.7478 139.055 31.7478C137.759 31.7478 136.751 32.9718 136.391 34.0698H136.355C136.355 34.0698 136.409 33.7818 136.409 33.4398V32.5758C136.409 32.0898 136.139 31.8198 135.653 31.8198H134.951C134.465 31.8198 134.213 32.0898 134.213 32.5758V40.2438ZM140.844 36.4098C140.844 39.0198 142.734 41.2158 145.776 41.2158C147.216 41.2158 148.296 40.6758 148.89 40.2978C149.286 40.0638 149.358 39.7038 149.142 39.2898L148.926 38.9298C148.692 38.5158 148.368 38.4618 147.918 38.6778C147.486 38.9478 146.784 39.2718 145.938 39.2718C144.552 39.2718 143.328 38.4078 143.184 36.7518H148.782C149.232 36.7518 149.574 36.3738 149.574 35.9778C149.574 33.4578 148.116 31.6038 145.506 31.6038C142.752 31.6038 140.844 33.5838 140.844 36.4098ZM143.238 35.3658C143.454 34.1418 144.282 33.3318 145.452 33.3318C146.496 33.3318 147.27 34.0878 147.306 35.3658H143.238Z" fill="white"/>
<path d="M63.216 18.5438C63.12 18.8198 63.24 18.9998 63.54 18.9998H63.948C64.164 18.9998 64.32 18.8918 64.38 18.6758L65.124 16.5638H68.316L69.072 18.6758C69.144 18.8918 69.288 18.9998 69.516 18.9998H69.924C70.212 18.9998 70.344 18.8198 70.248 18.5438L67.464 10.8518C67.392 10.6238 67.236 10.5278 67.02 10.5278H66.444C66.216 10.5278 66.072 10.6238 66 10.8518L63.216 18.5438ZM65.436 15.5798L66.384 12.8918C66.528 12.4598 66.72 11.6918 66.72 11.6918H66.744C66.744 11.6918 66.924 12.4598 67.068 12.8918L68.004 15.5798H65.436ZM73.6664 18.6758C73.7504 18.9038 73.8944 18.9998 74.1224 18.9998H74.6984C74.9144 18.9998 75.0704 18.9038 75.1424 18.6758L77.9624 10.9838C78.0584 10.7078 77.9384 10.5278 77.6384 10.5278H77.1944C76.9664 10.5278 76.8224 10.6238 76.7504 10.8518L74.7344 16.5158C74.5904 16.9718 74.4104 17.6798 74.4104 17.6798H74.3864C74.3864 17.6798 74.2184 16.9718 74.0624 16.5158L72.0704 10.8518C71.9984 10.6238 71.8544 10.5278 71.6264 10.5278H71.1704C70.8704 10.5278 70.7504 10.7078 70.8464 10.9838L73.6664 18.6758ZM78.5722 18.5438C78.4762 18.8198 78.5962 18.9998 78.8962 18.9998H79.3042C79.5202 18.9998 79.6762 18.8918 79.7362 18.6758L80.4802 16.5638H83.6723L84.4283 18.6758C84.5003 18.8918 84.6443 18.9998 84.8723 18.9998H85.2803C85.5682 18.9998 85.7003 18.8198 85.6043 18.5438L82.8202 10.8518C82.7483 10.6238 82.5922 10.5278 82.3762 10.5278H81.8002C81.5722 10.5278 81.4282 10.6238 81.3562 10.8518L78.5722 18.5438ZM80.7922 15.5798L81.7402 12.8918C81.8842 12.4598 82.0762 11.6918 82.0762 11.6918H82.1002C82.1002 11.6918 82.2803 12.4598 82.4243 12.8918L83.3603 15.5798H80.7922ZM87.4894 18.6038C87.4894 18.8678 87.6214 18.9998 87.8854 18.9998H88.2694C88.5334 18.9998 88.6654 18.8678 88.6654 18.6038V10.9238C88.6654 10.6598 88.5334 10.5278 88.2694 10.5278H87.8854C87.6214 10.5278 87.4894 10.6598 87.4894 10.9238V18.6038ZM91.4292 18.6038C91.4292 18.8678 91.5612 18.9998 91.8252 18.9998H96.0132C96.2652 18.9998 96.4092 18.8678 96.4092 18.6038V18.3638C96.4092 18.0998 96.2652 17.9678 96.0132 17.9678H92.6052V10.9238C92.6052 10.6598 92.4732 10.5278 92.2092 10.5278H91.8252C91.5612 10.5278 91.4292 10.6598 91.4292 10.9238V18.6038ZM97.2824 18.5438C97.1864 18.8198 97.3064 18.9998 97.6064 18.9998H98.0144C98.2304 18.9998 98.3864 18.8918 98.4464 18.6758L99.1904 16.5638H102.382L103.138 18.6758C103.21 18.8918 103.354 18.9998 103.582 18.9998H103.99C104.278 18.9998 104.41 18.8198 104.314 18.5438L101.53 10.8518C101.458 10.6238 101.302 10.5278 101.086 10.5278H100.51C100.282 10.5278 100.138 10.6238 100.066 10.8518L97.2824 18.5438ZM99.5024 15.5798L100.45 12.8918C100.594 12.4598 100.786 11.6918 100.786 11.6918H100.81C100.81 11.6918 100.99 12.4598 101.134 12.8918L102.07 15.5798H99.5024ZM106.2 18.6038C106.2 18.8678 106.332 18.9998 106.596 18.9998H109.224C110.724 18.9998 111.96 18.1838 111.96 16.5878C111.96 15.6398 111.456 14.7998 110.568 14.5358V14.5118C111.216 14.1758 111.612 13.5158 111.612 12.6878C111.612 11.3198 110.592 10.5278 109.164 10.5278H106.596C106.332 10.5278 106.2 10.6598 106.2 10.9238V18.6038ZM107.376 14.0918V11.5598H109.14C109.944 11.5598 110.412 12.0638 110.412 12.8078C110.412 13.5518 109.932 14.0918 109.164 14.0918H107.376ZM107.376 17.9678V15.0758H109.284C110.172 15.0758 110.748 15.6638 110.748 16.5278C110.748 17.3918 110.196 17.9678 109.284 17.9678H107.376ZM114.206 18.6038C114.206 18.8678 114.338 18.9998 114.602 18.9998H118.79C119.042 18.9998 119.186 18.8678 119.186 18.6038V18.3638C119.186 18.0998 119.042 17.9678 118.79 17.9678H115.382V10.9238C115.382 10.6598 115.25 10.5278 114.986 10.5278H114.602C114.338 10.5278 114.206 10.6598 114.206 10.9238V18.6038ZM120.923 18.6038C120.923 18.8678 121.055 18.9998 121.319 18.9998H125.651C125.915 18.9998 126.047 18.8678 126.047 18.6038V18.3638C126.047 18.0998 125.915 17.9678 125.651 17.9678H122.099V15.2438H124.751C125.003 15.2438 125.147 15.1118 125.147 14.8478V14.6078C125.147 14.3438 125.003 14.2118 124.751 14.2118H122.099V11.5598H125.447C125.711 11.5598 125.843 11.4158 125.843 11.1638V10.9238C125.843 10.6598 125.711 10.5278 125.447 10.5278H121.319C121.055 10.5278 120.923 10.6598 120.923 10.9238V18.6038ZM131.239 14.7038C131.239 17.1998 133.075 19.1438 135.595 19.1438C138.115 19.1438 139.939 17.1998 139.939 14.7038C139.939 12.2678 138.115 10.3838 135.595 10.3838C133.075 10.3838 131.239 12.2678 131.239 14.7038ZM132.463 14.7038C132.463 12.8678 133.795 11.4758 135.595 11.4758C137.395 11.4758 138.715 12.8678 138.715 14.7038C138.715 16.5998 137.395 18.0518 135.595 18.0518C133.795 18.0518 132.463 16.5998 132.463 14.7038ZM142.164 18.6038C142.164 18.8678 142.296 18.9998 142.56 18.9998H142.944C143.208 18.9998 143.34 18.8678 143.34 18.6038V13.5038C143.34 13.0238 143.268 12.2678 143.268 12.2678H143.292C143.292 12.2678 143.688 13.0358 143.988 13.5038L147.612 18.7358C147.72 18.9278 147.864 18.9998 148.08 18.9998H148.536C148.8 18.9998 148.932 18.8678 148.932 18.6038V10.9238C148.932 10.6598 148.8 10.5278 148.536 10.5278H148.152C147.9 10.5278 147.756 10.6598 147.756 10.9238V16.0358C147.756 16.5038 147.828 17.2598 147.828 17.2598H147.804C147.804 17.2598 147.408 16.4918 147.108 16.0358L143.496 10.7918C143.376 10.5998 143.244 10.5278 143.016 10.5278H142.56C142.296 10.5278 142.164 10.6598 142.164 10.9238V18.6038Z" fill="white"/>
<path d="M43.3824 32.0241C42.8877 33.0945 42.6509 33.5729 42.0162 34.5173C41.129 35.8379 39.8754 37.4859 38.3261 37.4975C36.9488 37.508 36.593 36.6184 34.7234 36.633C32.8544 36.6424 32.4647 37.5139 31.0852 37.4987C29.537 37.4859 28.3505 36.0007 27.4627 34.6835C24.9782 30.9852 24.7169 26.6522 26.2517 24.3463C27.3372 22.7112 29.0557 21.751 30.6687 21.751C32.3119 21.751 33.345 22.6342 34.703 22.6342C36.0225 22.6342 36.8252 21.7493 38.7257 21.7493C40.163 21.7493 41.6832 22.5152 42.7687 23.8347C39.2162 25.7375 39.7932 30.6964 43.3824 32.0241Z" fill="#F4F4F4"/>
<path d="M37.5269 20.0418C38.2671 19.1218 38.8289 17.8228 38.6247 16.4998C37.4178 16.5803 36.005 17.3269 35.1801 18.2935C34.4323 19.1743 33.8122 20.4822 34.0537 21.748C35.3715 21.7883 36.7353 21.0288 37.5269 20.0418Z" fill="#F4F4F4"/>
<path d="M41.4294 24.9121C36.3334 30.5004 31.6667 25.2504 25.3831 29.241C25.6018 31.0068 26.2756 32.9178 27.4626 34.6841C28.3499 36.0013 29.537 37.4864 31.0851 37.4993C32.4647 37.5139 32.8544 36.6424 34.7234 36.6336C36.593 36.6196 36.9482 37.5086 38.3261 37.4981C39.8754 37.4859 41.129 35.8379 42.0162 34.5179C42.6509 33.5734 42.8877 33.0951 43.3824 32.0247C40.3456 30.9012 39.477 27.183 41.4294 24.9121Z" fill="white"/>
<defs>
<linearGradient id="paint0_linear" x1="0" y1="-0.000244141" x2="190" y2="55.9998" gradientUnits="userSpaceOnUse">
<stop stop-color="#181818"/>
<stop offset="1" stop-color="#090606"/>
</linearGradient>
</defs>
</svg>
