<svg width="110" height="110" viewBox="0 0 110 110" fill="none" xmlns="http://www.w3.org/2000/svg">
<path d="M55 8.06738L9.625 32.1729V44.9131L11.6445 43.8389L55 20.8076L100.375 44.9131V32.1729L55 8.06738ZM55 11.1826L97.625 33.8271V40.3369L55 17.6924L12.375 40.3369V33.8271L55 11.1826ZM33 35.75C30.7382 35.75 28.875 37.6132 28.875 39.875V48.697C28.4047 48.5086 28.034 48.125 27.5 48.125H17.875C15.6132 48.125 13.75 49.9882 13.75 52.25V96.25C13.75 98.5118 15.6132 100.375 17.875 100.375H27.5C28.5683 100.375 29.5139 99.9053 30.25 99.2283C30.9861 99.9053 31.9317 100.375 33 100.375H45.375C46.4433 100.375 47.3889 99.9053 48.125 99.2283C48.8611 99.9053 49.8067 100.375 50.875 100.375H60.5C61.5683 100.375 62.5139 99.9053 63.25 99.2283C63.9861 99.9053 64.9317 100.375 66 100.375H77C78.0683 100.375 79.0139 99.9053 79.75 99.2283C80.4861 99.9053 81.4317 100.375 82.5 100.375H92.125C94.3868 100.375 96.25 98.5118 96.25 96.25V55C96.25 52.7382 94.3868 50.875 92.125 50.875H82.5C81.966 50.875 81.5953 51.2586 81.125 51.447V48.125C81.125 45.8632 79.2618 44 77 44H66C63.7382 44 61.875 45.8632 61.875 48.125V51.447C61.4047 51.2586 61.034 50.875 60.5 50.875H50.875C50.341 50.875 49.9703 51.2586 49.5 51.447V39.875C49.5 37.6132 47.6368 35.75 45.375 35.75H33ZM33 38.5H45.375C46.1519 38.5 46.75 39.0981 46.75 39.875V55H49.5C49.5 54.2231 50.0981 53.625 50.875 53.625H60.5C61.2769 53.625 61.875 54.2231 61.875 55H64.625V48.125C64.625 47.3481 65.2231 46.75 66 46.75H77C77.7769 46.75 78.375 47.3481 78.375 48.125V55H81.125C81.125 54.2231 81.7231 53.625 82.5 53.625H92.125C92.9019 53.625 93.5 54.2231 93.5 55V96.25C93.5 97.0269 92.9019 97.625 92.125 97.625H82.5C81.7231 97.625 81.125 97.0269 81.125 96.25H78.375C78.375 97.0269 77.7769 97.625 77 97.625H66C65.2231 97.625 64.625 97.0269 64.625 96.25H61.875C61.875 97.0269 61.2769 97.625 60.5 97.625H50.875C50.0981 97.625 49.5 97.0269 49.5 96.25H46.75C46.75 97.0269 46.1519 97.625 45.375 97.625H33C32.2231 97.625 31.625 97.0269 31.625 96.25H28.875C28.875 97.0269 28.2769 97.625 27.5 97.625H17.875C17.0981 97.625 16.5 97.0269 16.5 96.25V52.25C16.5 51.4731 17.0981 50.875 17.875 50.875H27.5C28.2769 50.875 28.875 51.4731 28.875 52.25C28.875 52.6147 29.0199 52.9644 29.2777 53.2223C29.5356 53.4801 29.8853 53.625 30.25 53.625C30.6147 53.625 30.9644 53.4801 31.2223 53.2223C31.4801 52.9644 31.625 52.6147 31.625 52.25V39.875C31.625 39.0981 32.2231 38.5 33 38.5ZM34.375 42.625V45.375H44V42.625H34.375ZM67.375 50.875V53.625H75.625V50.875H67.375ZM19.25 55V57.75H26.125V55H19.25ZM30.25 57.75C29.8853 57.75 29.5356 57.8949 29.2777 58.1527C29.0199 58.4106 28.875 58.7603 28.875 59.125C28.875 59.4897 29.0199 59.8394 29.2777 60.0973C29.5356 60.3551 29.8853 60.5 30.25 60.5C30.6147 60.5 30.9644 60.3551 31.2223 60.0973C31.4801 59.8394 31.625 59.4897 31.625 59.125C31.625 58.7603 31.4801 58.4106 31.2223 58.1527C30.9644 57.8949 30.6147 57.75 30.25 57.75ZM48.125 57.75C47.7603 57.75 47.4106 57.8949 47.1527 58.1527C46.8949 58.4106 46.75 58.7603 46.75 59.125C46.75 59.4897 46.8949 59.8394 47.1527 60.0973C47.4106 60.3551 47.7603 60.5 48.125 60.5C48.4897 60.5 48.8394 60.3551 49.0973 60.0973C49.3551 59.8394 49.5 59.4897 49.5 59.125C49.5 58.7603 49.3551 58.4106 49.0973 58.1527C48.8394 57.8949 48.4897 57.75 48.125 57.75ZM52.25 57.75V60.5H59.125V57.75H52.25ZM63.25 57.75C62.8853 57.75 62.5356 57.8949 62.2777 58.1527C62.0199 58.4106 61.875 58.7603 61.875 59.125C61.875 59.4897 62.0199 59.8394 62.2777 60.0973C62.5356 60.3551 62.8853 60.5 63.25 60.5C63.6147 60.5 63.9644 60.3551 64.2223 60.0973C64.4801 59.8394 64.625 59.4897 64.625 59.125C64.625 58.7603 64.4801 58.4106 64.2223 58.1527C63.9644 57.8949 63.6147 57.75 63.25 57.75ZM79.75 57.75C79.3853 57.75 79.0356 57.8949 78.7777 58.1527C78.5199 58.4106 78.375 58.7603 78.375 59.125C78.375 59.4897 78.5199 59.8394 78.7777 60.0973C79.0356 60.3551 79.3853 60.5 79.75 60.5C80.1147 60.5 80.4644 60.3551 80.7223 60.0973C80.9801 59.8394 81.125 59.4897 81.125 59.125C81.125 58.7603 80.9801 58.4106 80.7223 58.1527C80.4644 57.8949 80.1147 57.75 79.75 57.75ZM83.875 57.75V60.5H90.75V57.75H83.875ZM30.25 63.25C29.8853 63.25 29.5356 63.3949 29.2777 63.6527C29.0199 63.9106 28.875 64.2603 28.875 64.625C28.875 64.9897 29.0199 65.3394 29.2777 65.5973C29.5356 65.8551 29.8853 66 30.25 66C30.6147 66 30.9644 65.8551 31.2223 65.5973C31.4801 65.3394 31.625 64.9897 31.625 64.625C31.625 64.2603 31.4801 63.9106 31.2223 63.6527C30.9644 63.3949 30.6147 63.25 30.25 63.25ZM48.125 63.25C47.7603 63.25 47.4106 63.3949 47.1527 63.6527C46.8949 63.9106 46.75 64.2603 46.75 64.625C46.75 64.9897 46.8949 65.3394 47.1527 65.5973C47.4106 65.8551 47.7603 66 48.125 66C48.4897 66 48.8394 65.8551 49.0973 65.5973C49.3551 65.3394 49.5 64.9897 49.5 64.625C49.5 64.2603 49.3551 63.9106 49.0973 63.6527C48.8394 63.3949 48.4897 63.25 48.125 63.25ZM63.25 63.25C62.8853 63.25 62.5356 63.3949 62.2777 63.6527C62.0199 63.9106 61.875 64.2603 61.875 64.625C61.875 64.9897 62.0199 65.3394 62.2777 65.5973C62.5356 65.8551 62.8853 66 63.25 66C63.6147 66 63.9644 65.8551 64.2223 65.5973C64.4801 65.3394 64.625 64.9897 64.625 64.625C64.625 64.2603 64.4801 63.9106 64.2223 63.6527C63.9644 63.3949 63.6147 63.25 63.25 63.25ZM79.75 63.25C79.3853 63.25 79.0356 63.3949 78.7777 63.6527C78.5199 63.9106 78.375 64.2603 78.375 64.625C78.375 64.9897 78.5199 65.3394 78.7777 65.5973C79.0356 65.8551 79.3853 66 79.75 66C80.1147 66 80.4644 65.8551 80.7223 65.5973C80.9801 65.3394 81.125 64.9897 81.125 64.625C81.125 64.2603 80.9801 63.9106 80.7223 63.6527C80.4644 63.3949 80.1147 63.25 79.75 63.25ZM30.25 68.75C29.8853 68.75 29.5356 68.8949 29.2777 69.1527C29.0199 69.4106 28.875 69.7603 28.875 70.125C28.875 70.4897 29.0199 70.8394 29.2777 71.0973C29.5356 71.3551 29.8853 71.5 30.25 71.5C30.6147 71.5 30.9644 71.3551 31.2223 71.0973C31.4801 70.8394 31.625 70.4897 31.625 70.125C31.625 69.7603 31.4801 69.4106 31.2223 69.1527C30.9644 68.8949 30.6147 68.75 30.25 68.75ZM48.125 68.75C47.7603 68.75 47.4106 68.8949 47.1527 69.1527C46.8949 69.4106 46.75 69.7603 46.75 70.125C46.75 70.4897 46.8949 70.8394 47.1527 71.0973C47.4106 71.3551 47.7603 71.5 48.125 71.5C48.4897 71.5 48.8394 71.3551 49.0973 71.0973C49.3551 70.8394 49.5 70.4897 49.5 70.125C49.5 69.7603 49.3551 69.4106 49.0973 69.1527C48.8394 68.8949 48.4897 68.75 48.125 68.75ZM63.25 68.75C62.8853 68.75 62.5356 68.8949 62.2777 69.1527C62.0199 69.4106 61.875 69.7603 61.875 70.125C61.875 70.4897 62.0199 70.8394 62.2777 71.0973C62.5356 71.3551 62.8853 71.5 63.25 71.5C63.6147 71.5 63.9644 71.3551 64.2223 71.0973C64.4801 70.8394 64.625 70.4897 64.625 70.125C64.625 69.7603 64.4801 69.4106 64.2223 69.1527C63.9644 68.8949 63.6147 68.75 63.25 68.75ZM79.75 68.75C79.3853 68.75 79.0356 68.8949 78.7777 69.1527C78.5199 69.4106 78.375 69.7603 78.375 70.125C78.375 70.4897 78.5199 70.8394 78.7777 71.0973C79.0356 71.3551 79.3853 71.5 79.75 71.5C80.1147 71.5 80.4644 71.3551 80.7223 71.0973C80.9801 70.8394 81.125 70.4897 81.125 70.125C81.125 69.7603 80.9801 69.4106 80.7223 69.1527C80.4644 68.8949 80.1147 68.75 79.75 68.75ZM30.25 74.25C29.8853 74.25 29.5356 74.3949 29.2777 74.6527C29.0199 74.9106 28.875 75.2603 28.875 75.625C28.875 75.9897 29.0199 76.3394 29.2777 76.5973C29.5356 76.8551 29.8853 77 30.25 77C30.6147 77 30.9644 76.8551 31.2223 76.5973C31.4801 76.3394 31.625 75.9897 31.625 75.625C31.625 75.2603 31.4801 74.9106 31.2223 74.6527C30.9644 74.3949 30.6147 74.25 30.25 74.25ZM48.125 74.25C47.7603 74.25 47.4106 74.3949 47.1527 74.6527C46.8949 74.9106 46.75 75.2603 46.75 75.625C46.75 75.9897 46.8949 76.3394 47.1527 76.5973C47.4106 76.8551 47.7603 77 48.125 77C48.4897 77 48.8394 76.8551 49.0973 76.5973C49.3551 76.3394 49.5 75.9897 49.5 75.625C49.5 75.2603 49.3551 74.9106 49.0973 74.6527C48.8394 74.3949 48.4897 74.25 48.125 74.25ZM63.25 74.25C62.8853 74.25 62.5356 74.3949 62.2777 74.6527C62.0199 74.9106 61.875 75.2603 61.875 75.625C61.875 75.9897 62.0199 76.3394 62.2777 76.5973C62.5356 76.8551 62.8853 77 63.25 77C63.6147 77 63.9644 76.8551 64.2223 76.5973C64.4801 76.3394 64.625 75.9897 64.625 75.625C64.625 75.2603 64.4801 74.9106 64.2223 74.6527C63.9644 74.3949 63.6147 74.25 63.25 74.25ZM79.75 74.25C79.3853 74.25 79.0356 74.3949 78.7777 74.6527C78.5199 74.9106 78.375 75.2603 78.375 75.625C78.375 75.9897 78.5199 76.3394 78.7777 76.5973C79.0356 76.8551 79.3853 77 79.75 77C80.1147 77 80.4644 76.8551 80.7223 76.5973C80.9801 76.3394 81.125 75.9897 81.125 75.625C81.125 75.2603 80.9801 74.9106 80.7223 74.6527C80.4644 74.3949 80.1147 74.25 79.75 74.25ZM30.25 79.75C29.8853 79.75 29.5356 79.8949 29.2777 80.1527C29.0199 80.4106 28.875 80.7603 28.875 81.125C28.875 81.4897 29.0199 81.8394 29.2777 82.0973C29.5356 82.3551 29.8853 82.5 30.25 82.5C30.6147 82.5 30.9644 82.3551 31.2223 82.0973C31.4801 81.8394 31.625 81.4897 31.625 81.125C31.625 80.7603 31.4801 80.4106 31.2223 80.1527C30.9644 79.8949 30.6147 79.75 30.25 79.75ZM48.125 79.75C47.7603 79.75 47.4106 79.8949 47.1527 80.1527C46.8949 80.4106 46.75 80.7603 46.75 81.125C46.75 81.4897 46.8949 81.8394 47.1527 82.0973C47.4106 82.3551 47.7603 82.5 48.125 82.5C48.4897 82.5 48.8394 82.3551 49.0973 82.0973C49.3551 81.8394 49.5 81.4897 49.5 81.125C49.5 80.7603 49.3551 80.4106 49.0973 80.1527C48.8394 79.8949 48.4897 79.75 48.125 79.75ZM63.25 79.75C62.8853 79.75 62.5356 79.8949 62.2777 80.1527C62.0199 80.4106 61.875 80.7603 61.875 81.125C61.875 81.4897 62.0199 81.8394 62.2777 82.0973C62.5356 82.3551 62.8853 82.5 63.25 82.5C63.6147 82.5 63.9644 82.3551 64.2223 82.0973C64.4801 81.8394 64.625 81.4897 64.625 81.125C64.625 80.7603 64.4801 80.4106 64.2223 80.1527C63.9644 79.8949 63.6147 79.75 63.25 79.75ZM79.75 79.75C79.3853 79.75 79.0356 79.8949 78.7777 80.1527C78.5199 80.4106 78.375 80.7603 78.375 81.125C78.375 81.4897 78.5199 81.8394 78.7777 82.0973C79.0356 82.3551 79.3853 82.5 79.75 82.5C80.1147 82.5 80.4644 82.3551 80.7223 82.0973C80.9801 81.8394 81.125 81.4897 81.125 81.125C81.125 80.7603 80.9801 80.4106 80.7223 80.1527C80.4644 79.8949 80.1147 79.75 79.75 79.75ZM30.25 85.25C29.8853 85.25 29.5356 85.3949 29.2777 85.6527C29.0199 85.9106 28.875 86.2603 28.875 86.625C28.875 86.9897 29.0199 87.3394 29.2777 87.5973C29.5356 87.8551 29.8853 88 30.25 88C30.6147 88 30.9644 87.8551 31.2223 87.5973C31.4801 87.3394 31.625 86.9897 31.625 86.625C31.625 86.2603 31.4801 85.9106 31.2223 85.6527C30.9644 85.3949 30.6147 85.25 30.25 85.25ZM48.125 85.25C47.7603 85.25 47.4106 85.3949 47.1527 85.6527C46.8949 85.9106 46.75 86.2603 46.75 86.625C46.75 86.9897 46.8949 87.3394 47.1527 87.5973C47.4106 87.8551 47.7603 88 48.125 88C48.4897 88 48.8394 87.8551 49.0973 87.5973C49.3551 87.3394 49.5 86.9897 49.5 86.625C49.5 86.2603 49.3551 85.9106 49.0973 85.6527C48.8394 85.3949 48.4897 85.25 48.125 85.25ZM63.25 85.25C62.8853 85.25 62.5356 85.3949 62.2777 85.6527C62.0199 85.9106 61.875 86.2603 61.875 86.625C61.875 86.9897 62.0199 87.3394 62.2777 87.5973C62.5356 87.8551 62.8853 88 63.25 88C63.6147 88 63.9644 87.8551 64.2223 87.5973C64.4801 87.3394 64.625 86.9897 64.625 86.625C64.625 86.2603 64.4801 85.9106 64.2223 85.6527C63.9644 85.3949 63.6147 85.25 63.25 85.25ZM79.75 85.25C79.3853 85.25 79.0356 85.3949 78.7777 85.6527C78.5199 85.9106 78.375 86.2603 78.375 86.625C78.375 86.9897 78.5199 87.3394 78.7777 87.5973C79.0356 87.8551 79.3853 88 79.75 88C80.1147 88 80.4644 87.8551 80.7223 87.5973C80.9801 87.3394 81.125 86.9897 81.125 86.625C81.125 86.2603 80.9801 85.9106 80.7223 85.6527C80.4644 85.3949 80.1147 85.25 79.75 85.25ZM19.25 90.75V93.5H26.125V90.75H19.25ZM30.25 90.75C29.8853 90.75 29.5356 90.8949 29.2777 91.1527C29.0199 91.4106 28.875 91.7603 28.875 92.125C28.875 92.4897 29.0199 92.8394 29.2777 93.0973C29.5356 93.3551 29.8853 93.5 30.25 93.5C30.6147 93.5 30.9644 93.3551 31.2223 93.0973C31.4801 92.8394 31.625 92.4897 31.625 92.125C31.625 91.7603 31.4801 91.4106 31.2223 91.1527C30.9644 90.8949 30.6147 90.75 30.25 90.75ZM34.375 90.75V93.5H44V90.75H34.375ZM48.125 90.75C47.7603 90.75 47.4106 90.8949 47.1527 91.1527C46.8949 91.4106 46.75 91.7603 46.75 92.125C46.75 92.4897 46.8949 92.8394 47.1527 93.0973C47.4106 93.3551 47.7603 93.5 48.125 93.5C48.4897 93.5 48.8394 93.3551 49.0973 93.0973C49.3551 92.8394 49.5 92.4897 49.5 92.125C49.5 91.7603 49.3551 91.4106 49.0973 91.1527C48.8394 90.8949 48.4897 90.75 48.125 90.75ZM52.25 90.75V93.5H59.125V90.75H52.25ZM63.25 90.75C62.8853 90.75 62.5356 90.8949 62.2777 91.1527C62.0199 91.4106 61.875 91.7603 61.875 92.125C61.875 92.4897 62.0199 92.8394 62.2777 93.0973C62.5356 93.3551 62.8853 93.5 63.25 93.5C63.6147 93.5 63.9644 93.3551 64.2223 93.0973C64.4801 92.8394 64.625 92.4897 64.625 92.125C64.625 91.7603 64.4801 91.4106 64.2223 91.1527C63.9644 90.8949 63.6147 90.75 63.25 90.75ZM67.375 90.75V93.5H75.625V90.75H67.375ZM79.75 90.75C79.3853 90.75 79.0356 90.8949 78.7777 91.1527C78.5199 91.4106 78.375 91.7603 78.375 92.125C78.375 92.4897 78.5199 92.8394 78.7777 93.0973C79.0356 93.3551 79.3853 93.5 79.75 93.5C80.1147 93.5 80.4644 93.3551 80.7223 93.0973C80.9801 92.8394 81.125 92.4897 81.125 92.125C81.125 91.7603 80.9801 91.4106 80.7223 91.1527C80.4644 90.8949 80.1147 90.75 79.75 90.75ZM83.875 90.75V93.5H90.75V90.75H83.875Z" fill="#FBFCFF"/>
</svg>
