<svg width="70" height="70" viewBox="0 0 70 70" fill="none" xmlns="http://www.w3.org/2000/svg">
<path opacity="0.3" d="M20.4168 61.25L5.8335 43.75L14.5835 35C14.5835 35 20.4168 37.9167 23.3335 37.9167C26.2502 37.9167 32.0835 29.1667 32.0835 29.1667H43.7502C43.7502 29.1667 49.5835 29.1667 49.5835 35C49.5835 40.8334 49.5835 52.5 49.5835 52.5C49.5835 52.5 49.5835 58.3334 43.7502 58.3334C37.9168 58.3334 23.3335 58.3334 23.3335 58.3334L20.4168 61.25Z" fill="#12B505"/>
<path d="M20.1248 65.625L2.0415 43.75L18.3748 26.5416L18.6665 26.25L20.7082 21C21.5832 18.6666 23.6248 16.625 26.2498 15.75L37.9165 11.9583L46.9582 4.66663L67.6665 28L52.7915 42L52.4998 42.2916V52.5C52.4998 57.4583 48.7082 61.25 43.7498 61.25H24.4998L20.1248 65.625ZM9.62484 43.75L20.4165 56.875L22.1665 55.4166H43.7498C45.4998 55.4166 46.6665 54.25 46.6665 52.5V35C46.6665 33.25 45.4998 32.0833 43.7498 32.0833H32.6665L30.9165 36.1666C28.8748 39.9583 24.4998 42 20.4165 40.5416L15.1665 38.7916L9.62484 43.75ZM21.2915 34.7083L21.8748 35C23.3332 35.5833 24.4998 35 25.3748 33.5416L28.8748 26.25H43.7498C48.4165 26.25 52.2082 29.75 52.4998 34.4166L59.4998 27.7083L46.3748 12.8333L40.8332 17.2083L27.9998 21.2916C27.1248 21.5833 26.2498 22.1666 25.9582 23.0416L21.2915 34.7083Z" fill="#12B505"/>
</svg>
