<svg width="110" height="110" viewBox="0 0 110 110" fill="none" xmlns="http://www.w3.org/2000/svg">
<path d="M14.7222 12.7778L12.7778 14.7222L20.0288 21.9731C11.8862 30.5938 6.875 42.2114 6.875 55C6.875 81.5654 28.4346 103.125 55 103.125C67.7886 103.125 79.4062 98.1138 88.0269 89.9712L95.2778 97.2222L97.2222 95.2778L89.9712 88.0269C91.7275 86.1685 93.3496 84.1812 94.7944 82.0596L92.5278 80.5127C91.1797 82.4893 89.6597 84.3423 88.0269 86.0825L85.1104 83.166C92.0122 75.7915 96.25 65.8872 96.25 55C96.25 32.2319 77.7681 13.75 55 13.75C44.1128 13.75 34.2085 17.9878 26.834 24.8896L23.9175 21.9731C25.6577 20.3403 27.5107 18.8203 29.4873 17.4722L27.9404 15.2056C25.8188 16.6504 23.8315 18.2725 21.9731 20.0288L14.7222 12.7778ZM55 16.5C56.1709 16.5 57.3311 16.5591 58.4805 16.6665C58.0293 16.9028 57.75 17.3701 57.75 17.875C57.75 18.6323 58.3677 19.25 59.125 19.25C59.8823 19.25 60.5 18.6323 60.5 17.875C60.5 17.4775 60.3228 17.0962 60.022 16.8384C77.2739 19.0781 90.9165 32.7207 93.1616 49.9727C92.9038 49.6719 92.5225 49.5 92.125 49.5C91.3677 49.5 90.75 50.1177 90.75 50.875C90.75 51.6323 91.3677 52.25 92.125 52.25C92.6299 52.25 93.0972 51.9707 93.3335 51.5195C93.4409 52.6689 93.5 53.8291 93.5 55C93.5 76.2803 76.2803 93.5 55 93.5C53.8291 93.5 52.6689 93.4409 51.5195 93.3335C51.9707 93.0972 52.25 92.6299 52.25 92.125C52.25 91.3677 51.6323 90.75 50.875 90.75C50.1177 90.75 49.5 91.3677 49.5 92.125C49.5 92.5225 49.6772 92.9038 49.978 93.1616C32.7261 90.9219 19.0835 77.2793 16.8384 60.0273C17.0962 60.3281 17.4775 60.5 17.875 60.5C18.6323 60.5 19.25 59.8823 19.25 59.125C19.25 58.3677 18.6323 57.75 17.875 57.75C17.3701 57.75 16.9028 58.0293 16.6665 58.4805C16.5591 57.3311 16.5 56.1709 16.5 55C16.5 33.7197 33.7197 16.5 55 16.5ZM48.125 19.25C47.3677 19.25 46.75 19.8677 46.75 20.625C46.75 21.3823 47.3677 22 48.125 22C48.8823 22 49.5 21.3823 49.5 20.625C49.5 19.8677 48.8823 19.25 48.125 19.25ZM55 20.625C54.2427 20.625 53.625 21.2427 53.625 22C53.625 22.7573 54.2427 23.375 55 23.375C55.7573 23.375 56.375 22.7573 56.375 22C56.375 21.2427 55.7573 20.625 55 20.625ZM60.7632 23.3535C60.0059 23.3535 59.3882 23.9712 59.3882 24.7285C59.3882 25.4912 60.0059 26.1035 60.7632 26.1035C61.5205 26.1035 62.1382 25.4912 62.1382 24.7285C62.1382 23.9712 61.5205 23.3535 60.7632 23.3535ZM21.9731 23.9175L24.8896 26.834C17.9878 34.2085 13.75 44.1128 13.75 55C13.75 77.7681 32.2319 96.25 55 96.25C65.8872 96.25 75.7915 92.0122 83.166 85.1104L86.0825 88.0269C77.9614 95.6753 67.042 100.375 55 100.375C29.9224 100.375 9.625 80.0776 9.625 55C9.625 42.958 14.3247 32.0386 21.9731 23.9175ZM34.375 24.75C33.6177 24.75 33 25.3677 33 26.125C33 26.8823 33.6177 27.5 34.375 27.5C35.1323 27.5 35.75 26.8823 35.75 26.125C35.75 25.3677 35.1323 24.75 34.375 24.75ZM50.875 24.75C50.1177 24.75 49.5 25.3677 49.5 26.125C49.5 26.8823 50.1177 27.5 50.875 27.5C51.6323 27.5 52.25 26.8823 52.25 26.125C52.25 25.3677 51.6323 24.75 50.875 24.75ZM66.2632 26.1035C65.5059 26.1035 64.8882 26.7212 64.8882 27.4785C64.8882 28.2412 65.5059 28.8535 66.2632 28.8535C67.0205 28.8535 67.6382 28.2412 67.6382 27.4785C67.6382 26.7212 67.0205 26.1035 66.2632 26.1035ZM41.25 26.125C40.4927 26.125 39.875 26.7427 39.875 27.5C39.875 28.2573 40.4927 28.875 41.25 28.875C42.0073 28.875 42.625 28.2573 42.625 27.5C42.625 26.7427 42.0073 26.125 41.25 26.125ZM71.7632 28.8535C71.0059 28.8535 70.3882 29.4712 70.3882 30.2285C70.3882 30.9912 71.0059 31.6035 71.7632 31.6035C72.5205 31.6035 73.1382 30.9912 73.1382 30.2285C73.1382 29.4712 72.5205 28.8535 71.7632 28.8535ZM30.25 28.875C29.4927 28.875 28.875 29.4927 28.875 30.25C28.875 31.0073 29.4927 31.625 30.25 31.625C31.0073 31.625 31.625 31.0073 31.625 30.25C31.625 29.4927 31.0073 28.875 30.25 28.875ZM46.75 28.875C45.9927 28.875 45.375 29.4927 45.375 30.25C45.375 31.0073 45.9927 31.625 46.75 31.625C47.5073 31.625 48.125 31.0073 48.125 30.25C48.125 29.4927 47.5073 28.875 46.75 28.875ZM79.75 28.875C78.9927 28.875 78.375 29.4927 78.375 30.25C78.375 31.0073 78.9927 31.625 79.75 31.625C80.5073 31.625 81.125 31.0073 81.125 30.25C81.125 29.4927 80.5073 28.875 79.75 28.875ZM53.625 30.25C52.8677 30.25 52.25 30.8677 52.25 31.625C52.25 32.3823 52.8677 33 53.625 33C54.3823 33 55 32.3823 55 31.625C55 30.8677 54.3823 30.25 53.625 30.25ZM26.125 33C25.3677 33 24.75 33.6177 24.75 34.375C24.75 35.1323 25.3677 35.75 26.125 35.75C26.8823 35.75 27.5 35.1323 27.5 34.375C27.5 33.6177 26.8823 33 26.125 33ZM34.375 33C33.6177 33 33 33.6177 33 34.375C33 35.1323 33.6177 35.75 34.375 35.75C35.1323 35.75 35.75 35.1323 35.75 34.375C35.75 33.6177 35.1323 33 34.375 33ZM42.625 33C41.8677 33 41.25 33.6177 41.25 34.375C41.25 35.1323 41.8677 35.75 42.625 35.75C43.3823 35.75 44 35.1323 44 34.375C44 33.6177 43.3823 33 42.625 33ZM59.125 33C58.3677 33 57.75 33.6177 57.75 34.375C57.75 35.1323 58.3677 35.75 59.125 35.75C59.8823 35.75 60.5 35.1323 60.5 34.375C60.5 33.6177 59.8823 33 59.125 33ZM75.625 33C74.8677 33 74.25 33.6177 74.25 34.375C74.25 35.1323 74.8677 35.75 75.625 35.75C76.3823 35.75 77 35.1323 77 34.375C77 33.6177 76.3823 33 75.625 33ZM63.5132 37.1035C62.7559 37.1035 62.1382 37.7212 62.1382 38.4785C62.1382 39.2412 62.7559 39.8535 63.5132 39.8535C64.2705 39.8535 64.8882 39.2412 64.8882 38.4785C64.8882 37.7212 64.2705 37.1035 63.5132 37.1035ZM38.5 37.125C37.7427 37.125 37.125 37.7427 37.125 38.5C37.125 39.2573 37.7427 39.875 38.5 39.875C39.2573 39.875 39.875 39.2573 39.875 38.5C39.875 37.7427 39.2573 37.125 38.5 37.125ZM71.5 37.125C70.7427 37.125 70.125 37.7427 70.125 38.5C70.125 39.2573 70.7427 39.875 71.5 39.875C72.2573 39.875 72.875 39.2573 72.875 38.5C72.875 37.7427 72.2573 37.125 71.5 37.125ZM79.75 37.125C78.9927 37.125 78.375 37.7427 78.375 38.5C78.375 39.2573 78.9927 39.875 79.75 39.875C80.5073 39.875 81.125 39.2573 81.125 38.5C81.125 37.7427 80.5073 37.125 79.75 37.125ZM27.5 39.875C26.7427 39.875 26.125 40.4927 26.125 41.25C26.125 42.0073 26.7427 42.625 27.5 42.625C28.2573 42.625 28.875 42.0073 28.875 41.25C28.875 40.4927 28.2573 39.875 27.5 39.875ZM34.375 41.25C33.6177 41.25 33 41.8677 33 42.625C33 43.3823 33.6177 44 34.375 44C35.1323 44 35.75 43.3823 35.75 42.625C35.75 41.8677 35.1323 41.25 34.375 41.25ZM42.625 41.25C41.8677 41.25 41.25 41.8677 41.25 42.625C41.25 43.3823 41.8677 44 42.625 44C43.3823 44 44 43.3823 44 42.625C44 41.8677 43.3823 41.25 42.625 41.25ZM67.375 41.25C66.6177 41.25 66 41.8677 66 42.625C66 43.3823 66.6177 44 67.375 44C68.1323 44 68.75 43.3823 68.75 42.625C68.75 41.8677 68.1323 41.25 67.375 41.25ZM82.5 42.625C81.7427 42.625 81.125 43.2427 81.125 44C81.125 44.7573 81.7427 45.375 82.5 45.375C83.2573 45.375 83.875 44.7573 83.875 44C83.875 43.2427 83.2573 42.625 82.5 42.625ZM20.625 45.375C19.8677 45.375 19.25 45.9927 19.25 46.75C19.25 47.5073 19.8677 48.125 20.625 48.125C21.3823 48.125 22 47.5073 22 46.75C22 45.9927 21.3823 45.375 20.625 45.375ZM30.25 45.375C29.4927 45.375 28.875 45.9927 28.875 46.75C28.875 47.5073 29.4927 48.125 30.25 48.125C31.0073 48.125 31.625 47.5073 31.625 46.75C31.625 45.9927 31.0073 45.375 30.25 45.375ZM46.75 45.375C45.9927 45.375 45.375 45.9927 45.375 46.75C45.375 47.5073 45.9927 48.125 46.75 48.125C47.5073 48.125 48.125 47.5073 48.125 46.75C48.125 45.9927 47.5073 45.375 46.75 45.375ZM63.25 45.375C62.4927 45.375 61.875 45.9927 61.875 46.75C61.875 47.5073 62.4927 48.125 63.25 48.125C64.0073 48.125 64.625 47.5073 64.625 46.75C64.625 45.9927 64.0073 45.375 63.25 45.375ZM71.5 45.375C70.7427 45.375 70.125 45.9927 70.125 46.75C70.125 47.5073 70.7427 48.125 71.5 48.125C72.2573 48.125 72.875 47.5073 72.875 46.75C72.875 45.9927 72.2573 45.375 71.5 45.375ZM85.25 48.125C84.4927 48.125 83.875 48.7427 83.875 49.5C83.875 50.2573 84.4927 50.875 85.25 50.875C86.0073 50.875 86.625 50.2573 86.625 49.5C86.625 48.7427 86.0073 48.125 85.25 48.125ZM26.125 49.5C25.3677 49.5 24.75 50.1177 24.75 50.875C24.75 51.6323 25.3677 52.25 26.125 52.25C26.8823 52.25 27.5 51.6323 27.5 50.875C27.5 50.1177 26.8823 49.5 26.125 49.5ZM50.875 49.5C50.1177 49.5 49.5 50.1177 49.5 50.875C49.5 51.6323 50.1177 52.25 50.875 52.25C51.6323 52.25 52.25 51.6323 52.25 50.875C52.25 50.1177 51.6323 49.5 50.875 49.5ZM59.125 49.5C58.3677 49.5 57.75 50.1177 57.75 50.875C57.75 51.6323 58.3677 52.25 59.125 52.25C59.8823 52.25 60.5 51.6323 60.5 50.875C60.5 50.1177 59.8823 49.5 59.125 49.5ZM75.625 49.5C74.8677 49.5 74.25 50.1177 74.25 50.875C74.25 51.6323 74.8677 52.25 75.625 52.25C76.3823 52.25 77 51.6323 77 50.875C77 50.1177 76.3823 49.5 75.625 49.5ZM31.625 52.25C30.8677 52.25 30.25 52.8677 30.25 53.625C30.25 54.3823 30.8677 55 31.625 55C32.3823 55 33 54.3823 33 53.625C33 52.8677 32.3823 52.25 31.625 52.25ZM22 53.625C21.2427 53.625 20.625 54.2427 20.625 55C20.625 55.7573 21.2427 56.375 22 56.375C22.7573 56.375 23.375 55.7573 23.375 55C23.375 54.2427 22.7573 53.625 22 53.625ZM55 53.625C54.2427 53.625 53.625 54.2427 53.625 55C53.625 55.7573 54.2427 56.375 55 56.375C55.7573 56.375 56.375 55.7573 56.375 55C56.375 54.2427 55.7573 53.625 55 53.625ZM88 53.625C87.2427 53.625 86.625 54.2427 86.625 55C86.625 55.7573 87.2427 56.375 88 56.375C88.7573 56.375 89.375 55.7573 89.375 55C89.375 54.2427 88.7573 53.625 88 53.625ZM78.375 55C77.6177 55 77 55.6177 77 56.375C77 57.1323 77.6177 57.75 78.375 57.75C79.1323 57.75 79.75 57.1323 79.75 56.375C79.75 55.6177 79.1323 55 78.375 55ZM34.375 57.75C33.6177 57.75 33 58.3677 33 59.125C33 59.8823 33.6177 60.5 34.375 60.5C35.1323 60.5 35.75 59.8823 35.75 59.125C35.75 58.3677 35.1323 57.75 34.375 57.75ZM50.875 57.75C50.1177 57.75 49.5 58.3677 49.5 59.125C49.5 59.8823 50.1177 60.5 50.875 60.5C51.6323 60.5 52.25 59.8823 52.25 59.125C52.25 58.3677 51.6323 57.75 50.875 57.75ZM59.125 57.75C58.3677 57.75 57.75 58.3677 57.75 59.125C57.75 59.8823 58.3677 60.5 59.125 60.5C59.8823 60.5 60.5 59.8823 60.5 59.125C60.5 58.3677 59.8823 57.75 59.125 57.75ZM83.875 57.75C83.1177 57.75 82.5 58.3677 82.5 59.125C82.5 59.8823 83.1177 60.5 83.875 60.5C84.6323 60.5 85.25 59.8823 85.25 59.125C85.25 58.3677 84.6323 57.75 83.875 57.75ZM24.75 59.125C23.9927 59.125 23.375 59.7427 23.375 60.5C23.375 61.2573 23.9927 61.875 24.75 61.875C25.5073 61.875 26.125 61.2573 26.125 60.5C26.125 59.7427 25.5073 59.125 24.75 59.125ZM38.5 61.875C37.7427 61.875 37.125 62.4927 37.125 63.25C37.125 64.0073 37.7427 64.625 38.5 64.625C39.2573 64.625 39.875 64.0073 39.875 63.25C39.875 62.4927 39.2573 61.875 38.5 61.875ZM46.75 61.875C45.9927 61.875 45.375 62.4927 45.375 63.25C45.375 64.0073 45.9927 64.625 46.75 64.625C47.5073 64.625 48.125 64.0073 48.125 63.25C48.125 62.4927 47.5073 61.875 46.75 61.875ZM63.25 61.875C62.4927 61.875 61.875 62.4927 61.875 63.25C61.875 64.0073 62.4927 64.625 63.25 64.625C64.0073 64.625 64.625 64.0073 64.625 63.25C64.625 62.4927 64.0073 61.875 63.25 61.875ZM79.75 61.875C78.9927 61.875 78.375 62.4927 78.375 63.25C78.375 64.0073 78.9927 64.625 79.75 64.625C80.5073 64.625 81.125 64.0073 81.125 63.25C81.125 62.4927 80.5073 61.875 79.75 61.875ZM89.375 61.875C88.6177 61.875 88 62.4927 88 63.25C88 64.0073 88.6177 64.625 89.375 64.625C90.1323 64.625 90.75 64.0073 90.75 63.25C90.75 62.4927 90.1323 61.875 89.375 61.875ZM27.5 64.625C26.7427 64.625 26.125 65.2427 26.125 66C26.125 66.7573 26.7427 67.375 27.5 67.375C28.2573 67.375 28.875 66.7573 28.875 66C28.875 65.2427 28.2573 64.625 27.5 64.625ZM42.625 66C41.8677 66 41.25 66.6177 41.25 67.375C41.25 68.1323 41.8677 68.75 42.625 68.75C43.3823 68.75 44 68.1323 44 67.375C44 66.6177 43.3823 66 42.625 66ZM67.375 66C66.6177 66 66 66.6177 66 67.375C66 68.1323 66.6177 68.75 67.375 68.75C68.1323 68.75 68.75 68.1323 68.75 67.375C68.75 66.6177 68.1323 66 67.375 66ZM75.625 66C74.8677 66 74.25 66.6177 74.25 67.375C74.25 68.1323 74.8677 68.75 75.625 68.75C76.3823 68.75 77 68.1323 77 67.375C77 66.6177 76.3823 66 75.625 66ZM82.5 67.375C81.7427 67.375 81.125 67.9927 81.125 68.75C81.125 69.5073 81.7427 70.125 82.5 70.125C83.2573 70.125 83.875 69.5073 83.875 68.75C83.875 67.9927 83.2573 67.375 82.5 67.375ZM30.25 70.125C29.4927 70.125 28.875 70.7427 28.875 71.5C28.875 72.2573 29.4927 72.875 30.25 72.875C31.0073 72.875 31.625 72.2573 31.625 71.5C31.625 70.7427 31.0073 70.125 30.25 70.125ZM38.5 70.125C37.7427 70.125 37.125 70.7427 37.125 71.5C37.125 72.2573 37.7427 72.875 38.5 72.875C39.2573 72.875 39.875 72.2573 39.875 71.5C39.875 70.7427 39.2573 70.125 38.5 70.125ZM71.5 70.125C70.7427 70.125 70.125 70.7427 70.125 71.5C70.125 72.2573 70.7427 72.875 71.5 72.875C72.2573 72.875 72.875 72.2573 72.875 71.5C72.875 70.7427 72.2573 70.125 71.5 70.125ZM46.4868 70.1465C45.7295 70.1465 45.1118 70.7588 45.1118 71.5215C45.1118 72.2788 45.7295 72.8965 46.4868 72.8965C47.2441 72.8965 47.8618 72.2788 47.8618 71.5215C47.8618 70.7588 47.2441 70.1465 46.4868 70.1465ZM34.375 74.25C33.6177 74.25 33 74.8677 33 75.625C33 76.3823 33.6177 77 34.375 77C35.1323 77 35.75 76.3823 35.75 75.625C35.75 74.8677 35.1323 74.25 34.375 74.25ZM50.875 74.25C50.1177 74.25 49.5 74.8677 49.5 75.625C49.5 76.3823 50.1177 77 50.875 77C51.6323 77 52.25 76.3823 52.25 75.625C52.25 74.8677 51.6323 74.25 50.875 74.25ZM67.375 74.25C66.6177 74.25 66 74.8677 66 75.625C66 76.3823 66.6177 77 67.375 77C68.1323 77 68.75 76.3823 68.75 75.625C68.75 74.8677 68.1323 74.25 67.375 74.25ZM75.625 74.25C74.8677 74.25 74.25 74.8677 74.25 75.625C74.25 76.3823 74.8677 77 75.625 77C76.3823 77 77 76.3823 77 75.625C77 74.8677 76.3823 74.25 75.625 74.25ZM83.875 74.25C83.1177 74.25 82.5 74.8677 82.5 75.625C82.5 76.3823 83.1177 77 83.875 77C84.6323 77 85.25 76.3823 85.25 75.625C85.25 74.8677 84.6323 74.25 83.875 74.25ZM56.375 77C55.6177 77 55 77.6177 55 78.375C55 79.1323 55.6177 79.75 56.375 79.75C57.1323 79.75 57.75 79.1323 57.75 78.375C57.75 77.6177 57.1323 77 56.375 77ZM30.25 78.375C29.4927 78.375 28.875 78.9927 28.875 79.75C28.875 80.5073 29.4927 81.125 30.25 81.125C31.0073 81.125 31.625 80.5073 31.625 79.75C31.625 78.9927 31.0073 78.375 30.25 78.375ZM63.25 78.375C62.4927 78.375 61.875 78.9927 61.875 79.75C61.875 80.5073 62.4927 81.125 63.25 81.125C64.0073 81.125 64.625 80.5073 64.625 79.75C64.625 78.9927 64.0073 78.375 63.25 78.375ZM79.75 78.375C78.9927 78.375 78.375 78.9927 78.375 79.75C78.375 80.5073 78.9927 81.125 79.75 81.125C80.5073 81.125 81.125 80.5073 81.125 79.75C81.125 78.9927 80.5073 78.375 79.75 78.375ZM38.2368 78.3965C37.4795 78.3965 36.8618 79.0088 36.8618 79.7715C36.8618 80.5288 37.4795 81.1465 38.2368 81.1465C38.9941 81.1465 39.6118 80.5288 39.6118 79.7715C39.6118 79.0088 38.9941 78.3965 38.2368 78.3965ZM68.75 81.125C67.9927 81.125 67.375 81.7427 67.375 82.5C67.375 83.2573 67.9927 83.875 68.75 83.875C69.5073 83.875 70.125 83.2573 70.125 82.5C70.125 81.7427 69.5073 81.125 68.75 81.125ZM43.7368 81.1465C42.9795 81.1465 42.3618 81.7588 42.3618 82.5215C42.3618 83.2788 42.9795 83.8965 43.7368 83.8965C44.4941 83.8965 45.1118 83.2788 45.1118 82.5215C45.1118 81.7588 44.4941 81.1465 43.7368 81.1465ZM59.125 82.5C58.3677 82.5 57.75 83.1177 57.75 83.875C57.75 84.6323 58.3677 85.25 59.125 85.25C59.8823 85.25 60.5 84.6323 60.5 83.875C60.5 83.1177 59.8823 82.5 59.125 82.5ZM75.625 82.5C74.8677 82.5 74.25 83.1177 74.25 83.875C74.25 84.6323 74.8677 85.25 75.625 85.25C76.3823 85.25 77 84.6323 77 83.875C77 83.1177 76.3823 82.5 75.625 82.5ZM49.2368 83.8965C48.4795 83.8965 47.8618 84.5088 47.8618 85.2715C47.8618 86.0288 48.4795 86.6465 49.2368 86.6465C49.9941 86.6465 50.6118 86.0288 50.6118 85.2715C50.6118 84.5088 49.9941 83.8965 49.2368 83.8965ZM55 86.625C54.2427 86.625 53.625 87.2427 53.625 88C53.625 88.7573 54.2427 89.375 55 89.375C55.7573 89.375 56.375 88.7573 56.375 88C56.375 87.2427 55.7573 86.625 55 86.625ZM61.875 88C61.1177 88 60.5 88.6177 60.5 89.375C60.5 90.1323 61.1177 90.75 61.875 90.75C62.6323 90.75 63.25 90.1323 63.25 89.375C63.25 88.6177 62.6323 88 61.875 88Z" fill="#517BFA"/>
</svg>
